<svg width="36" height="37" viewBox="0 0 36 37" fill="none" xmlns="http://www.w3.org/2000/svg">
<circle cx="18" cy="18.5" r="18" fill="#E5F1FF"/>
<path d="M27 13L14.625 25L9 19.545" stroke="#377DFF" stroke-width="3" stroke-linecap="round" stroke-linejoin="round"/>
</svg>
